My Data Analysis Portfolio - Model Evaluation
…
Computational engine: glm 

# Fitting the model to a training dataset
flu_mod10_fit <- 
 flu_mod10_workflow %>% 
  fit(data = train_data)

# Looking at the model output
flu_mod10_fit %>% 
  extract_fit_parsnip() %>% 
  tidy()

# A tibble: 38 × 5
   term                 estimate std.error statistic p.value
   <chr>                   <dbl>     <dbl>     <dbl>   <dbl>
 1 (Intercept)           -4.01       8.97     -0.447  0.655 
 2 SwollenLymphNodesYes  -0.400      0.229    -1.75   0.0802
 3 ChestCongestionYes     0.187      0.247     0.755  0.450 
 4 ChillsSweatsYes        0.343      0.328     1.05   0.296 
 5 NasalCongestionYes     0.384      0.290     1.32   0.185 
 6 CoughYNYes            -0.256      0.590    -0.434  0.664 
 7 SneezeYes              0.0384     0.246     0.156  0.876 
 8 FatigueYes             0.148      0.448     0.331  0.741 
 9 SubjectiveFeverYes     0.185      0.257     0.719  0.472 
10 HeadacheYes            0.571      0.351     1.63   0.104 
# … with 28 more rows

FULL MODEL: USING trained workflow to predict unseen test data

# Using the trained workflow (flu_mod10_fit) to predict with the unseen test data
predict(flu_mod10_fit, test_data)

# A tibble: 183 × 1
   .pred_class
   <fct>      
 1 Yes        
 2 No         
 3 No         
 4 No         
 5 No         
 6 No         
 7 No         
 8 No         
 9 No         
10 No         
# … with 173 more rows

# Using argument() with the model plus test data for saving them together
flu_mod10_aug <- 
  augment(flu_mod10_fit, test_data)
  
flu_mod10_aug %>%
  select(Nausea, .pred_No, .pred_Yes)

# A tibble: 183 × 3
   Nausea .pred_No .pred_Yes
   <fct>     <dbl>     <dbl>
 1 Yes       0.103     0.897
 2 Yes       0.819     0.181
 3 Yes       0.519     0.481
 4 No        0.557     0.443
 5 Yes       0.668     0.332
 6 Yes       0.555     0.445
 7 No        0.792     0.208
 8 Yes       0.594     0.406
 9 No        0.848     0.152
10 No        0.708     0.292
# … with 173 more rows
…
# A tibble: 2 × 5
  term         estimate std.error statistic  p.value
  <chr>           <dbl>     <dbl>     <dbl>    <dbl>
1 (Intercept)    -0.664     0.171    -3.89  0.000100
2 RunnyNoseYes    0.101     0.200     0.506 0.613   

ALTERNATIVE MODEL: USING TRAINED WORKFLOW TO PREDICT

# Using the trained data to predict with the unseen test data
predict(flu_mod10_fit2, test_data)

# A tibble: 183 × 1
   .pred_class
   <fct>      
 1 No         
 2 No         
 3 No         
 4 No         
 5 No         
 6 No         
 7 No         
 8 No         
 9 No         
10 No         
# … with 173 more rows

# Using argument() with the model plus test data for saving them together
flu_mod10_aug2 <- 
  augment(flu_mod10_fit2, test_data)
  
flu_mod10_aug2 %>%
  select(Nausea, .pred_No, .pred_Yes)

# A tibble: 183 × 3
   Nausea .pred_No .pred_Yes
   <fct>     <dbl>     <dbl>
 1 Yes       0.637     0.363
 2 Yes       0.660     0.340
 3 Yes       0.660     0.340
 4 No        0.637     0.363
 5 Yes       0.637     0.363
 6 Yes       0.637     0.363
 7 No        0.660     0.340
 8 Yes       0.637     0.363
 9 No        0.660     0.340
10 No        0.637     0.363
# … with 173 more rows
…
cont1_wflow <- 
  workflow() %>% 
  add_model(cont_model1) %>% 
  add_recipe(cont_recipe1)

cont1_fit <- 
  cont1_wflow %>% 
  fit(data = train_data)

cont1_fit %>% 
  extract_fit_parsnip() %>% 
  tidy()

# A tibble: 38 × 5
   term                 estimate std.error statistic  p.value
   <chr>                   <dbl>     <dbl>     <dbl>    <dbl>
 1 (Intercept)           97.5        0.382   255.    0       
 2 SwollenLymphNodesYes  -0.289      0.108    -2.67  0.00781 
 3 ChestCongestionYes     0.135      0.115     1.18  0.239   
 4 ChillsSweatsYes        0.199      0.148     1.34  0.179   
 5 NasalCongestionYes    -0.199      0.130    -1.53  0.127   
 6 CoughYNYes             0.328      0.273     1.20  0.230   
 7 SneezeYes             -0.335      0.115    -2.91  0.00377 
 8 FatigueYes             0.267      0.197     1.36  0.176   
 9 SubjectiveFeverYes     0.458      0.121     3.77  0.000180
10 HeadacheYes           -0.0328     0.151    -0.217 0.828   
# … with 28 more rows

Check with testing data

predict(cont1_fit, test_data)

Warning in predict.lm(object = object$fit, newdata = new_data, type =
"response"): prediction from a rank-deficient fit may be misleading

# A tibble: 183 × 1
   .pred
   <dbl>
 1  98.7
 2  99.0
 3  99.1
 4  98.6
 5  98.7
 6  98.7
 7  99.1
 8  98.9
 9  99.2
10  99.1
# … with 173 more rows

cont1_aug <- 
  augment(cont1_fit, test_data)

Warning in predict.lm(object = object$fit, newdata = new_data, type =
"response"): prediction from a rank-deficient fit may be misleading

cont1_aug

# A tibble: 183 × 33
   SwollenLymph…¹ Chest…² Chill…³ Nasal…⁴ CoughYN Sneeze Fatigue Subje…⁵ Heada…⁶
   <fct>          <fct>   <fct>   <fct>   <fct>   <fct>  <fct>   <fct>   <fct>  
 1 Yes            Yes     Yes     Yes     No      Yes    Yes     Yes     Yes    
 2 Yes            No      Yes     No      No      No     Yes     Yes     Yes    
 3 No             No      Yes     No      Yes     Yes    Yes     Yes     Yes    
 4 No             Yes     Yes     Yes     Yes     Yes    Yes     Yes     Yes    
 5 Yes            Yes     Yes     Yes     Yes     No     Yes     Yes     Yes    
 6 No             Yes     Yes     Yes     Yes     Yes    Yes     Yes     Yes    
 7 No             No      Yes     No      Yes     No     Yes     Yes     Yes    
 8 Yes            Yes     Yes     Yes     Yes     Yes    Yes     Yes     Yes    
 9 No             Yes     No      No      Yes     Yes    Yes     No      Yes    
10 Yes            Yes     Yes     Yes     Yes     Yes    Yes     Yes     Yes    
# … with 173 more rows, 24 more variables: Weakness <fct>, WeaknessYN <fct>,
#   CoughIntensity <fct>, CoughYN2 <fct>, Myalgia <fct>, MyalgiaYN <fct>,
#   RunnyNose <fct>, AbPain <fct>, ChestPain <fct>, Diarrhea <fct>,
#   EyePn <fct>, Insomnia <fct>, ItchyEye <fct>, Nausea <fct>, EarPn <fct>,
#   Hearing <fct>, Pharyngitis <fct>, Breathless <fct>, ToothPn <fct>,
#   Vision <fct>, Vomit <fct>, Wheeze <fct>, BodyTemp <dbl>, .pred <dbl>, and
#   abbreviated variable names ¹​SwollenLymphNodes, ²​ChestCongestion, …
…
# A tibble: 2 × 5
  term         estimate std.error statistic p.value
  <chr>           <dbl>     <dbl>     <dbl>   <dbl>
1 (Intercept)    99.1      0.0978   1014.    0     
2 RunnyNoseYes   -0.229    0.115      -1.98  0.0477

RMSE

Testing Data

Check model with testing data

predict(cont2_fit, test_data)

# A tibble: 183 × 1
   .pred
   <dbl>
 1  98.9
 2  99.1
 3  99.1
 4  98.9
 5  98.9
 6  98.9
 7  99.1
 8  98.9
 9  99.1
10  98.9
# … with 173 more rows

cont2_aug <- 
  augment(cont2_fit, test_data)

cont2_aug

# A tibble: 183 × 33
   SwollenLymph…¹ Chest…² Chill…³ Nasal…⁴ CoughYN Sneeze Fatigue Subje…⁵ Heada…⁶
   <fct>          <fct>   <fct>   <fct>   <fct>   <fct>  <fct>   <fct>   <fct>  
 1 Yes            Yes     Yes     Yes     No      Yes    Yes     Yes     Yes    
 2 Yes            No      Yes     No      No      No     Yes     Yes     Yes    
 3 No             No      Yes     No      Yes     Yes    Yes     Yes     Yes    
 4 No             Yes     Yes     Yes     Yes     Yes    Yes     Yes     Yes    
 5 Yes            Yes     Yes     Yes     Yes     No     Yes     Yes     Yes    
 6 No             Yes     Yes     Yes     Yes     Yes    Yes     Yes     Yes    
 7 No             No      Yes     No      Yes     No     Yes     Yes     Yes    
 8 Yes            Yes     Yes     Yes     Yes     Yes    Yes     Yes     Yes    
 9 No             Yes     No      No      Yes     Yes    Yes     No      Yes    
10 Yes            Yes     Yes     Yes     Yes     Yes    Yes     Yes     Yes    
# … with 173 more rows, 24 more variables: Weakness <fct>, WeaknessYN <fct>,
#   CoughIntensity <fct>, CoughYN2 <fct>, Myalgia <fct>, MyalgiaYN <fct>,
#   RunnyNose <fct>, AbPain <fct>, ChestPain <fct>, Diarrhea <fct>,
#   EyePn <fct>, Insomnia <fct>, ItchyEye <fct>, Nausea <fct>, EarPn <fct>,
#   Hearing <fct>, Pharyngitis <fct>, Breathless <fct>, ToothPn <fct>,
#   Vision <fct>, Vomit <fct>, Wheeze <fct>, BodyTemp <dbl>, .pred <dbl>, and
#   abbreviated variable names ¹​SwollenLymphNodes, ²​ChestCongestion, …
…
